…
    ## here() starts at /Users/xiaolongbao/Documents/Repos/2022_r_workshop/friendly-octo-palm-tree

``` r
ipt <- installed.packages() %>%
  as_tibble() %>%
  select(Package) %>%
  write_csv(here("data.csv"))

ipt
```

    ## # A tibble: 172 × 1
    ##    Package   
    ##    <chr>     
    ##  1 askpass   
    ##  2 assertthat
    ##  3 backports 
    ##  4 base      
    ##  5 base64enc 
    ##  6 bit       
    ##  7 bit64     
    ##  8 blob      
    ##  9 boot      
    ## 10 brew      
    ## # … with 162 more rows
    ## # ℹ Use `print(n = ...)` to see more rows
